ECE_351/HW1/transcript
# Compile of CLA.sv was successful.
# Compile of stimulus.sv was successful.
# Compile of tb_CLA4Bit.sv was successful.
# Compile of tb_CLA8Bit.sv was successful.
# 4 compiles, 0 failed with no errors.
vsim -gui work.tb_CLA4BIT
# vsim -gui work.tb_CLA4BIT 
# Start time: 16:21:31 on Apr 27,2021
# ** Note: (vsim-3812) Design is being optimized...
# Loading sv_std.std
# Loading work.tb_CLA4BIT(fast)
run -all
# ***Congratulations, No errors found after         512 tests***
# Compile of CLA.sv was successful.
# Compile of stimulus.sv was successful.
# Compile of tb_CLA4Bit.sv was successful.
# Compile of tb_CLA8Bit.sv was successful.
# 4 compiles, 0 failed with no errors.
vsim -gui work.tb_CLA4BIT
# End time: 16:23:13 on Apr 27,2021, Elapsed time: 0:01:42
# Errors: 0, Warnings: 3
# vsim -gui work.tb_CLA4BIT 
# Start time: 16:23:13 on Apr 27,2021
# ** Note: (vsim-8009) Loading existing optimized design _opt1
# Loading sv_std.std
# Loading work.tb_CLA4BIT(fast)
run -all
# ***Congratulations, No errors found after         512 tests***
# Compile of CLA.sv failed with 16 errors.
# Compile of stimulus.sv was successful.
# Compile of tb_CLA4Bit.sv was successful.
# Compile of tb_CLA8Bit.sv was successful.
# 4 compiles, 1 failed with 16 errors.
# Compile of CLA.sv failed with 16 errors.
# Compile of stimulus.sv failed with 17 errors.
# Compile of tb_CLA4Bit.sv was successful.
# Compile of tb_CLA8Bit.sv was successful.
# 4 compiles, 2 failed with 33 errors.



# Compile of CLA.sv failed with 16 errors.
# Compile of stimulus.sv failed with 16 errors.
# Compile of tb_CLA4Bit.sv was successful.
# Compile of tb_CLA8Bit.sv was successful.
# 4 compiles, 2 failed with 32 errors.
# Compile of CLA.sv failed with 16 errors.
# Compile of stimulus.sv failed with 16 errors.
# Compile of tb_CLA4Bit.sv was successful.
# Compile of tb_CLA8Bit.sv was successful.
# 4 compiles, 2 failed with 32 errors.
# Compile of CLA.sv failed with 16 errors.
# Compile of stimulus.sv failed with 16 errors.
# Compile of tb_CLA4Bit.sv was successful.
# Compile of tb_CLA8Bit.sv was successful.
# 4 compiles, 2 failed with 32 errors.
# Compile of CLA.sv failed with 16 errors.
# Compile of stimulus.sv failed with 16 errors.
# Compile of tb_CLA4Bit.sv was successful.
# Compile of tb_CLA8Bit.sv was successful.
# 4 compiles, 2 failed with 32 errors.
# Compile of CLA.sv was successful.
# Compile of stimulus.sv was successful.
# Compile of tb_CLA4Bit.sv was successful.
# Compile of tb_CLA8Bit.sv was successful.
# 4 compiles, 0 failed with no errors.
# Compile of CLA.sv was successful.
# Compile of stimulus.sv was successful.
# Compile of tb_CLA4Bit.sv was successful.
# Compile of tb_CLA8Bit.sv was successful.
# 4 compiles, 0 failed with no errors.
# Compile of CLA.sv was successful.
# Compile of stimulus.sv was successful.
# Compile of tb_CLA4Bit.sv was successful.
# Compile of tb_CLA8Bit.sv was successful.
# 4 compiles, 0 failed with no errors.
vsim -gui work.tb_CLA4BIT
# End time: 16:26:59 on Apr 27,2021, Elapsed time: 0:03:46
# Errors: 0, Warnings: 10
# vsim -gui work.tb_CLA4BIT 
# Start time: 16:26:59 on Apr 27,2021
# ** Note: (vsim-3813) Design is being optimized due to module recompilation...
# Loading sv_std.std
# Loading work.tb_CLA4BIT(fast)
run -all
# ***Congratulations, No errors found after         512 tests***
# Compile of CLA.sv was successful.
# Compile of stimulus.sv failed with 11 errors.
# Compile of tb_CLA4Bit.sv was successful.
# Compile of tb_CLA8Bit.sv was successful.
# 4 compiles, 1 failed with 11 errors.
# Compile of CLA.sv was successful.
# Compile of stimulus.sv failed with 10 errors.
# Compile of tb_CLA4Bit.sv was successful.
# Compile of tb_CLA8Bit.sv was successful.
# 4 compiles, 1 failed with 10 errors.
# Compile of CLA.sv was successful.
# Compile of stimulus.sv failed with 10 errors.
# Compile of tb_CLA4Bit.sv was successful.
# Compile of tb_CLA8Bit.sv was successful.
# 4 compiles, 1 failed with 10 errors.
# Compile of CLA.sv was successful.
# Compile of stimulus.sv failed with 10 errors.
# Compile of tb_CLA4Bit.sv was successful.
# Compile of tb_CLA8Bit.sv was successful.
# 4 compiles, 1 failed with 10 errors.
# Compile of CLA.sv was successful.
# Compile of stimulus.sv failed with 10 errors.
# Compile of tb_CLA4Bit.sv was successful.
# Compile of tb_CLA8Bit.sv was successful.
# 4 compiles, 1 failed with 10 errors.
# Compile of CLA.sv was successful.
# Compile of stimulus.sv failed with 16 errors.
# Compile of tb_CLA4Bit.sv was successful.
# Compile of tb_CLA8Bit.sv was successful.
# 4 compiles, 1 failed with 16 errors.
# Compile of CLA.sv was successful.
# Compile of stimulus.sv failed with 16 errors.
# Compile of tb_CLA4Bit.sv was successful.
# Compile of tb_CLA8Bit.sv was successful.
# 4 compiles, 1 failed with 16 errors.
# Compile of CLA.sv was successful.
# Compile of stimulus.sv failed with 16 errors.
# Compile of tb_CLA4Bit.sv was successful.
# Compile of tb_CLA8Bit.sv was successful.
# 4 compiles, 1 failed with 16 errors.
# Compile of CLA.sv was successful.
# Compile of stimulus.sv failed with 16 errors.
# Compile of tb_CLA4Bit.sv was successful.
# Compile of tb_CLA8Bit.sv was successful.
# 4 compiles, 1 failed with 16 errors.
# Compile of CLA.sv was successful.
# Compile of stimulus.sv failed with 16 errors.
# Compile of tb_CLA4Bit.sv was successful.
# Compile of tb_CLA8Bit.sv was successful.
# 4 compiles, 1 failed with 16 errors.
# Compile of CLA.sv was successful.
# Compile of stimulus.sv failed with 2 errors.
# Compile of tb_CLA4Bit.sv was successful.
# Compile of tb_CLA8Bit.sv was successful.
# 4 compiles, 1 failed with 2 errors.
# Compile of CLA.sv was successful.
# Compile of stimulus.sv failed with 2 errors.
# Compile of tb_CLA4Bit.sv was successful.
# Compile of tb_CLA8Bit.sv was successful.
# 4 compiles, 1 failed with 2 errors.
# Compile of CLA.sv was successful.
# Compile of stimulus.sv failed with 2 errors.
# Compile of tb_CLA4Bit.sv was successful.
# Compile of tb_CLA8Bit.sv was successful.
# 4 compiles, 1 failed with 2 errors.
# Compile of CLA.sv was successful.
# Compile of stimulus.sv failed with 2 errors.
# Compile of tb_CLA4Bit.sv was successful.
# Compile of tb_CLA8Bit.sv was successful.
# 4 compiles, 1 failed with 2 errors.
# Compile of CLA.sv was successful.
# Compile of stimulus.sv failed with 2 errors.
# Compile of tb_CLA4Bit.sv was successful.
# Compile of tb_CLA8Bit.sv was successful.
# 4 compiles, 1 failed with 2 errors.
# Compile of CLA.sv was successful.
# Compile of stimulus.sv failed with 2 errors.
# Compile of tb_CLA4Bit.sv was successful.
# Compile of tb_CLA8Bit.sv was successful.
# 4 compiles, 1 failed with 2 errors.
# Compile of CLA.sv was successful.
# Compile of stimulus.sv failed with 2 errors.
# Compile of tb_CLA4Bit.sv was successful.
# Compile of tb_CLA8Bit.sv was successful.
# 4 compiles, 1 failed with 2 errors.
# Compile of CLA.sv was successful.
# Compile of stimulus.sv failed with 2 errors.
# Compile of tb_CLA4Bit.sv was successful.
# Compile of tb_CLA8Bit.sv was successful.
# 4 compiles, 1 failed with 2 errors.
# Compile of CLA.sv was successful.
# Compile of stimulus.sv failed with 2 errors.
# Compile of tb_CLA4Bit.sv was successful.
# Compile of tb_CLA8Bit.sv was successful.
# 4 compiles, 1 failed with 2 errors.
# Compile of CLA.sv was successful.
# Compile of stimulus.sv failed with 2 errors.
# Compile of tb_CLA4Bit.sv was successful.
# Compile of tb_CLA8Bit.sv was successful.
# 4 compiles, 1 failed with 2 errors.
# Compile of CLA.sv was successful.
# Compile of stimulus.sv failed with 4 errors.
# Compile of tb_CLA4Bit.sv was successful.
# Compile of tb_CLA8Bit.sv was successful.
# 4 compiles, 1 failed with 4 errors.
# Compile of CLA.sv was successful.
# Compile of stimulus.sv failed with 2 errors.
# Compile of tb_CLA4Bit.sv was successful.
# Compile of tb_CLA8Bit.sv was successful.
# 4 compiles, 1 failed with 2 errors.
# Compile of CLA.sv was successful.
# Compile of stimulus.sv failed with 2 errors.
# Compile of tb_CLA4Bit.sv was successful.
# Compile of tb_CLA8Bit.sv was successful.
# 4 compiles, 1 failed with 2 errors.
# Compile of CLA.sv was successful.
# Compile of stimulus.sv failed with 2 errors.
# Compile of tb_CLA4Bit.sv was successful.
# Compile of tb_CLA8Bit.sv was successful.
# 4 compiles, 1 failed with 2 errors.
# Compile of CLA.sv was successful.
# Compile of stimulus.sv failed with 2 errors.
# Compile of tb_CLA4Bit.sv was successful.
# Compile of tb_CLA8Bit.sv was successful.
# 4 compiles, 1 failed with 2 errors.
# Compile of CLA.sv was successful.
# Compile of stimulus.sv was successful.
# Compile of tb_CLA4Bit.sv was successful.
# Compile of tb_CLA8Bit.sv was successful.
# 4 compiles, 0 failed with no errors.
run -all
vsim -gui work.stimulus
# End time: 16:45:15 on Apr 27,2021, Elapsed time: 0:18:16
# Errors: 0, Warnings: 28
# vsim -gui work.stimulus 
# Start time: 16:45:15 on Apr 27,2021
# ** Note: (vsim-3812) Design is being optimized...
# Loading sv_std.std
# Loading work.stimulus(fast)
run -all
# b1=1101zzzz, b2=d0
#                   10 MISMATCH: Inputs: ain =  0, bin =  0, cin = 0 	Actual Outputs: sum =  z, cout = z	Expected Outputs: sum =  0, cout = 0
#                   20 MISMATCH: Inputs: ain =  0, bin =  1, cin = 0 	Actual Outputs: sum =  z, cout = z	Expected Outputs: sum =  1, cout = 0
#                   30 MISMATCH: Inputs: ain =  0, bin =  2, cin = 0 	Actual Outputs: sum =  z, cout = z	Expected Outputs: sum =  2, cout = 0
#                   40 MISMATCH: Inputs: ain =  0, bin =  3, cin = 0 	Actual Outputs: sum =  z, cout = z	Expected Outputs: sum =  3, cout = 0
#                   50 MISMATCH: Inputs: ain =  0, bin =  4, cin = 0 	Actual Outputs: sum =  z, cout = z	Expected Outputs: sum =  4, cout = 0
#                   60 MISMATCH: Inputs: ain =  0, bin =  5, cin = 0 	Actual Outputs: sum =  z, cout = z	Expected Outputs: sum =  5, cout = 0
#                   70 MISMATCH: Inputs: ain =  0, bin =  6, cin = 0 	Actual Outputs: sum =  z, cout = z	Expected Outputs: sum =  6, cout = 0
#                   80 MISMATCH: Inputs: ain =  0, bin =  7, cin = 0 	Actual Outputs: sum =  z, cout = z	Expected Outputs: sum =  7, cout = 0
#                   90 MISMATCH: Inputs: ain =  0, bin =  8, cin = 0 	Actual Outputs: sum =  z, cout = z	Expected Outputs: sum =  8, cout = 0
#                  100 MISMATCH: Inputs: ain =  0, bin =  9, cin = 0 	Actual Outputs: sum =  z, cout = z	Expected Outputs: sum =  9, cout = 0
#                  110 MISMATCH: Inputs: ain =  0, bin = 10, cin = 0 	Actual Outputs: sum =  z, cout = z	Expected Outputs: sum = 10, cout = 0
#                  120 MISMATCH: Inputs: ain =  0, bin = 11, cin = 0 	Actual Outputs: sum =  z, cout = z	Expected Outputs: sum = 11, cout = 0
#                  130 MISMATCH: Inputs: ain =  0, bin = 12, cin = 0 	Actual Outputs: sum =  z, cout = z	Expected Outputs: sum = 12, cout = 0
#                  140 MISMATCH: Inputs: ain =  0, bin = 13, cin = 0 	Actual Outputs: sum =  z, cout = z	Expected Outputs: sum = 13, cout = 0
#                  150 MISMATCH: Inputs: ain =  0, bin = 14, cin = 0 	Actual Outputs: sum =  z, cout = z	Expected Outputs: sum = 14, cout = 0
#                  160 MISMATCH: Inputs: ain =  0, bin = 15, cin = 0 	Actual Outputs: sum =  z, cout = z	Expected Outputs: sum = 15, cout = 0
#                  170 MISMATCH: Inputs: ain =  1, bin =  0, cin = 0 	Actual Outputs: sum =  z, cout = z	Expected Outputs: sum =  1, cout = 0
#                  180 MISMATCH: Inputs: ain =  1, bin =  1, cin = 0 	Actual Outputs: sum =  z, cout = z	Expected Outputs: sum =  2, cout = 0
#                  190 MISMATCH: Inputs: ain =  1, bin =  2, cin = 0 	Actual Outputs: sum =  z, cout = z	Expected Outputs: sum =  3, cout = 0
#                  200 MISMATCH: Inputs: ain =  1, bin =  3, cin = 0 	Actual Outputs: sum =  z, cout = z	Expected Outputs: sum =  4, cout = 0
#                  210 MISMATCH: Inputs: ain =  1, bin =  4, cin = 0 	Actual Outputs: sum =  z, cout = z	Expected Outputs: sum =  5, cout = 0
#                  220 MISMATCH: Inputs: ain =  1, bin =  5, cin = 0 	Actual Outputs: sum =  z, cout = z	Expected Outputs: sum =  6, cout = 0
#                  230 MISMATCH: Inputs: ain =  1, bin =  6, cin = 0 	Actual Outputs: sum =  z, cout = z	Expected Outputs: sum =  7, cout = 0
#                  240 MISMATCH: Inputs: ain =  1, bin =  7, cin = 0 	Actual Outputs: sum =  z, cout = z	Expected Outputs: sum =  8, cout = 0
#                  250 MISMATCH: Inputs: ain =  1, bin =  8, cin = 0 	Actual Outputs: sum =  z, cout = z	Expected Outputs: sum =  9, cout = 0
#                  260 MISMATCH: Inputs: ain =  1, bin =  9, cin = 0 	Actual Outputs: sum =  z, cout = z	Expected Outputs: sum = 10, cout = 0
#                  270 MISMATCH: Inputs: ain =  1, bin = 10, cin = 0 	Actual Outputs: sum =  z, cout = z	Expected Outputs: sum = 11, cout = 0
#                  280 MISMATCH: Inputs: ain =  1, bin = 11, cin = 0 	Actual Outputs: sum =  z, cout = z	Expected Outputs: sum = 12, cout = 0
#                  290 MISMATCH: Inputs: ain =  1, bin = 12, cin = 0 	Actual Outputs: sum =  z, cout = z	Expected Outputs: sum = 13, cout = 0
#                  300 MISMATCH: Inputs: ain =  1, bin = 13, cin = 0 	Actual Outputs: sum =  z, cout = z	Expected Outputs: sum = 14, cout = 0
#                  310 MISMATCH: Inputs: ain =  1, bin = 14, cin = 0 	Actual Outputs: sum =  z, cout = z	Expected Outputs: sum = 15, cout = 0
#                  320 MISMATCH: Inputs: ain =  1, bin = 15, cin = 0 	Actual Outputs: sum =  z, cout = z	Expected Outputs: sum =  0, cout = 1
#                  330 MISMATCH: Inputs: ain =  2, bin =  0, cin = 0 	Actual Outputs: sum =  z, cout = z	Expected Outputs: sum =  2, cout = 0
#                  340 MISMATCH: Inputs: ain =  2, bin =  1, cin = 0 	Actual Outputs: sum =  z, cout = z	Expected Outputs: sum =  3, cout = 0
#                  350 MISMATCH: Inputs: ain =  2, bin =  2, cin = 0 	Actual Outputs: sum =  z, cout = z	Expected Outputs: sum =  4, cout = 0
#                  360 MISMATCH: Inputs: ain =  2, bin =  3, cin = 0 	Actual Outputs: sum =  z, cout = z	Expected Outputs: sum =  5, cout = 0
#                  370 MISMATCH: Inputs: ain =  2, bin =  4, cin = 0 	Actual Outputs: sum =  z, cout = z	Expected Outputs: sum =  6, cout = 0
#                  380 MISMATCH: Inputs: ain =  2, bin =  5, cin = 0 	Actual Outputs: sum =  z, cout = z	Expected Outputs: sum =  7, cout = 0
#                  390 MISMATCH: Inputs: ain =  2, bin =  6, cin = 0 	Actual Outputs: sum =  z, cout = z	Expected Outputs: sum =  8, cout = 0
#                  400 MISMATCH: Inputs: ain =  2, bin =  7, cin = 0 	Actual Outputs: sum =  z, cout = z	Expected Outputs: sum =  9, cout = 0
#                  410 MISMATCH: Inputs: ain =  2, bin =  8, cin = 0 	Actual Outputs: sum =  z, cout = z	Expected Outputs: sum = 10, cout = 0
#                  420 MISMATCH: Inputs: ain =  2, bin =  9, cin = 0 	Actual Outputs: sum =  z, cout = z	Expected Outputs: sum = 11, cout = 0
#                  430 MISMATCH: Inputs: ain =  2, bin = 10, cin = 0 	Actual Outputs: sum =  z, cout = z	Expected Outputs: sum = 12, cout = 0
#                  440 MISMATCH: Inputs: ain =  2, bin = 11, cin = 0 	Actual Outputs: sum =  z, cout = z	Expected Outputs: sum = 13, cout = 0
#                  450 MISMATCH: Inputs: ain =  2, bin = 12, cin = 0 	Actual Outputs: sum =  z, cout = z	Expected Outputs: sum = 14, cout = 0
#                  460 MISMATCH: Inputs: ain =  2, bin = 13, cin = 0 	Actual Outputs: sum =  z, cout = z	Expected Outputs: sum = 15, cout = 0
#                  470 MISMATCH: Inputs: ain =  2, bin = 14, cin = 0 	Actual Outputs: sum =  z, cout = z	Expected Outputs: sum =  0, cout = 1
#                  480 MISMATCH: Inputs: ain =  2, bin = 15, cin = 0 	Actual Outputs: sum =  z, cout = z	Expected Outputs: sum =  1, cout = 1
#                  490 MISMATCH: Inputs: ain =  3, bin =  0, cin = 0 	Actual Outputs: sum =  z, cout = z	Expected Outputs: sum =  3, cout = 0
#                  500 MISMATCH: Inputs: ain =  3, bin =  1, cin = 0 	Actual Outputs: sum =  z, cout = z	Expected Outputs: sum =  4, cout = 0
#                  510 MISMATCH: Inputs: ain =  3, bin =  2, cin = 0 	Actual Outputs: sum =  z, cout = z	Expected Outputs: sum =  5, cout = 0
#                  520 MISMATCH: Inputs: ain =  3, bin =  3, cin = 0 	Actual Outputs: sum =  z, cout = z	Expected Outputs: sum =  6, cout = 0
#                  530 MISMATCH: Inputs: ain =  3, bin =  4, cin = 0 	Actual Outputs: sum =  z, cout = z	Expected Outputs: sum =  7, cout = 0
#                  540 MISMATCH: Inputs: ain =  3, bin =  5, cin = 0 	Actual Outputs: sum =  z, cout = z	Expected Outputs: sum =  8, cout = 0
#                  550 MISMATCH: Inputs: ain =  3, bin =  6, cin = 0 	Actual Outputs: sum =  z, cout = z	Expected Outputs: sum =  9, cout = 0
#                  560 MISMATCH: Inputs: ain =  3, bin =  7, cin = 0 	Actual Outputs: sum =  z, cout = z	Expected Outputs: sum = 10, cout = 0
#                  570 MISMATCH: Inputs: ain =  3, bin =  8, cin = 0 	Actual Outputs: sum =  z, cout = z	Expected Outputs: sum = 11, cout = 0
#                  580 MISMATCH: Inputs: ain =  3, bin =  9, cin = 0 	Actual Outputs: sum =  z, cout = z	Expected Outputs: sum = 12, cout = 0
#                  590 MISMATCH: Inputs: ain =  3, bin = 10, cin = 0 	Actual Outputs: sum =  z, cout = z	Expected Outputs: sum = 13, cout = 0
#                  600 MISMATCH: Inputs: ain =  3, bin = 11, cin = 0 	Actual Outputs: sum =  z, cout = z	Expected Outputs: sum = 14, cout = 0
#                  610 MISMATCH: Inputs: ain =  3, bin = 12, cin = 0 	Actual Outputs: sum =  z, cout = z	Expected Outputs: sum = 15, cout = 0
#                  620 MISMATCH: Inputs: ain =  3, bin = 13, cin = 0 	Actual Outputs: sum =  z, cout = z	Expected Outputs: sum =  0, cout = 1
#                  630 MISMATCH: Inputs: ain =  3, bin = 14, cin = 0 	Actual Outputs: sum =  z, cout = z	Expected Outputs: sum =  1, cout = 1
#                  640 MISMATCH: Inputs: ain =  3, bin = 15, cin = 0 	Actual Outputs: sum =  z, cout = z	Expected Outputs: sum =  2, cout = 1
#                  650 MISMATCH: Inputs: ain =  4, bin =  0, cin = 0 	Actual Outputs: sum =  z, cout = z	Expected Outputs: sum =  4, cout = 0
#                  660 MISMATCH: Inputs: ain =  4, bin =  1, cin = 0 	Actual Outputs: sum =  z, cout = z	Expected Outputs: sum =  5, cout = 0
#                  670 MISMATCH: Inputs: ain =  4, bin =  2, cin = 0 	Actual Outputs: sum =  z, cout = z	Expected Outputs: sum =  6, cout = 0
#                  680 MISMATCH: Inputs: ain =  4, bin =  3, cin = 0 	Actual Outputs: sum =  z, cout = z	Expected Outputs: sum =  7, cout = 0
#                  690 MISMATCH: Inputs: ain =  4, bin =  4, cin = 0 	Actual Outputs: sum =  z, cout = z	Expected Outputs: sum =  8, cout = 0
#                  700 MISMATCH: Inputs: ain =  4, bin =  5, cin = 0 	Actual Outputs: sum =  z, cout = z	Expected Outputs: sum =  9, cout = 0
#                  710 MISMATCH: Inputs: ain =  4, bin =  6, cin = 0 	Actual Outputs: sum =  z, cout = z	Expected Outputs: sum = 10, cout = 0
#                  720 MISMATCH: Inputs: ain =  4, bin =  7, cin = 0 	Actual Outputs: sum =  z, cout = z	Expected Outputs: sum = 11, cout = 0
#                  730 MISMATCH: Inputs: ain =  4, bin =  8, cin = 0 	Actual Outputs: sum =  z, cout = z	Expected Outputs: sum = 12, cout = 0
#                  740 MISMATCH: Inputs: ain =  4, bin =  9, cin = 0 	Actual Outputs: sum =  z, cout = z	Expected Outputs: sum = 13, cout = 0
#                  750 MISMATCH: Inputs: ain =  4, bin = 10, cin = 0 	Actual Outputs: sum =  z, cout = z	Expected Outputs: sum = 14, cout = 0
#                  760 MISMATCH: Inputs: ain =  4, bin = 11, cin = 0 	Actual Outputs: sum =  z, cout = z	Expected Outputs: sum = 15, cout = 0
#                  770 MISMATCH: Inputs: ain =  4, bin = 12, cin = 0 	Actual Outputs: sum =  z, cout = z	Expected Outputs: sum =  0, cout = 1
#                  780 MISMATCH: Inputs: ain =  4, bin = 13, cin = 0 	Actual Outputs: sum =  z, cout = z	Expected Outputs: sum =  1, cout = 1
#                  790 MISMATCH: Inputs: ain =  4, bin = 14, cin = 0 	Actual Outputs: sum =  z, cout = z	Expected Outputs: sum =  2, cout = 1
#                  800 MISMATCH: Inputs: ain =  4, bin = 15, cin = 0 	Actual Outputs: sum =  z, cout = z	Expected Outputs: sum =  3, cout = 1
#                  810 MISMATCH: Inputs: ain =  5, bin =  0, cin = 0 	Actual Outputs: sum =  z, cout = z	Expected Outputs: sum =  5, cout = 0
#                  820 MISMATCH: Inputs: ain =  5, bin =  1, cin = 0 	Actual Outputs: sum =  z, cout = z	Expected Outputs: sum =  6, cout = 0
#                  830 MISMATCH: Inputs: ain =  5, bin =  2, cin = 0 	Actual Outputs: sum =  z, cout = z	Expected Outputs: sum =  7, cout = 0
#                  840 MISMATCH: Inputs: ain =  5, bin =  3, cin = 0 	Actual Outputs: sum =  z, cout = z	Expected Outputs: sum =  8, cout = 0
#                  850 MISMATCH: Inputs: ain =  5, bin =  4, cin = 0 	Actual Outputs: sum =  z, cout = z	Expected Outputs: sum =  9, cout = 0
#                  860 MISMATCH: Inputs: ain =  5, bin =  5, cin = 0 	Actual Outputs: sum =  z, cout = z	Expected Outputs: sum = 10, cout = 0
#                  870 MISMATCH: Inputs: ain =  5, bin =  6, cin = 0 	Actual Outputs: sum =  z, cout = z	Expected Outputs: sum = 11, cout = 0
#                  880 MISMATCH: Inputs: ain =  5, bin =  7, cin = 0 	Actual Outputs: sum =  z, cout = z	Expected Outputs: sum = 12, cout = 0
#                  890 MISMATCH: Inputs: ain =  5, bin =  8, cin = 0 	Actual Outputs: sum =  z, cout = z	Expected Outputs: sum = 13, cout = 0
#                  900 MISMATCH: Inputs: ain =  5, bin =  9, cin = 0 	Actual Outputs: sum =  z, cout = z	Expected Outputs: sum = 14, cout = 0
#                  910 MISMATCH: Inputs: ain =  5, bin = 10, cin = 0 	Actual Outputs: sum =  z, cout = z	Expected Outputs: sum = 15, cout = 0
#                  920 MISMATCH: Inputs: ain =  5, bin = 11, cin = 0 	Actual Outputs: sum =  z, cout = z	Expected Outputs: sum =  0, cout = 1
#                  930 MISMATCH: Inputs: ain =  5, bin = 12, cin = 0 	Actual Outputs: sum =  z, cout = z	Expected Outputs: sum =  1, cout = 1
#                  940 MISMATCH: Inputs: ain =  5, bin = 13, cin = 0 	Actual Outputs: sum =  z, cout = z	Expected Outputs: sum =  2, cout = 1
#                  950 MISMATCH: Inputs: ain =  5, bin = 14, cin = 0 	Actual Outputs: sum =  z, cout = z	Expected Outputs: sum =  3, cout = 1
#                  960 MISMATCH: Inputs: ain =  5, bin = 15, cin = 0 	Actual Outputs: sum =  z, cout = z	Expected Outputs: sum =  4, cout = 1
#                  970 MISMATCH: Inputs: ain =  6, bin =  0, cin = 0 	Actual Outputs: sum =  z, cout = z	Expected Outputs: sum =  6, cout = 0
#                  980 MISMATCH: Inputs: ain =  6, bin =  1, cin = 0 	Actual Outputs: sum =  z, cout = z	Expected Outputs: sum =  7, cout = 0
#                  990 MISMATCH: Inputs: ain =  6, bin =  2, cin = 0 	Actual Outputs: sum =  z, cout = z	Expected Outputs: sum =  8, cout = 0
#                 1000 MISMATCH: Inputs: ain =  6, bin =  3, cin = 0 	Actual Outputs: sum =  z, cout = z	Expected Outputs: sum =  9, cout = 0
#                 1010 MISMATCH: Inputs: ain =  6, bin =  4, cin = 0 	Actual Outputs: sum =  z, cout = z	Expected Outputs: sum = 10, cout = 0
#                 1020 MISMATCH: Inputs: ain =  6, bin =  5, cin = 0 	Actual Outputs: sum =  z, cout = z	Expected Outputs: sum = 11, cout = 0
#                 1030 MISMATCH: Inputs: ain =  6, bin =  6, cin = 0 	Actual Outputs: sum =  z, cout = z	Expected Outputs: sum = 12, cout = 0
#                 1040 MISMATCH: Inputs: ain =  6, bin =  7, cin = 0 	Actual Outputs: sum =  z, cout = z	Expected Outputs: sum = 13, cout = 0
#                 1050 MISMATCH: Inputs: ain =  6, bin =  8, cin = 0 	Actual Outputs: sum =  z, cout = z	Expected Outputs: sum = 14, cout = 0
#                 1060 MISMATCH: Inputs: ain =  6, bin =  9, cin = 0 	Actual Outputs: sum =  z, cout = z	Expected Outputs: sum = 15, cout = 0
#                 1070 MISMATCH: Inputs: ain =  6, bin = 10, cin = 0 	Actual Outputs: sum =  z, cout = z	Expected Outputs: sum =  0, cout = 1
#                 1080 MISMATCH: Inputs: ain =  6, bin = 11, cin = 0 	Actual Outputs: sum =  z, cout = z	Expected Outputs: sum =  1, cout = 1
#                 1090 MISMATCH: Inputs: ain =  6, bin = 12, cin = 0 	Actual Outputs: sum =  z, cout = z	Expected Outputs: sum =  2, cout = 1
#                 1100 MISMATCH: Inputs: ain =  6, bin = 13, cin = 0 	Actual Outputs: sum =  z, cout = z	Expected Outputs: sum =  3, cout = 1
#                 1110 MISMATCH: Inputs: ain =  6, bin = 14, cin = 0 	Actual Outputs: sum =  z, cout = z	Expected Outputs: sum =  4, cout = 1
#                 1120 MISMATCH: Inputs: ain =  6, bin = 15, cin = 0 	Actual Outputs: sum =  z, cout = z	Expected Outputs: sum =  5, cout = 1
#                 1130 MISMATCH: Inputs: ain =  7, bin =  0, cin = 0 	Actual Outputs: sum =  z, cout = z	Expected Outputs: sum =  7, cout = 0
#                 1140 MISMATCH: Inputs: ain =  7, bin =  1, cin = 0 	Actual Outputs: sum =  z, cout = z	Expected Outputs: sum =  8, cout = 0
#                 1150 MISMATCH: Inputs: ain =  7, bin =  2, cin = 0 	Actual Outputs: sum =  z, cout = z	Expected Outputs: sum =  9, cout = 0
#                 1160 MISMATCH: Inputs: ain =  7, bin =  3, cin = 0 	Actual Outputs: sum =  z, cout = z	Expected Outputs: sum = 10, cout = 0
#                 1170 MISMATCH: Inputs: ain =  7, bin =  4, cin = 0 	Actual Outputs: sum =  z, cout = z	Expected Outputs: sum = 11, cout = 0
#                 1180 MISMATCH: Inputs: ain =  7, bin =  5, cin = 0 	Actual Outputs: sum =  z, cout = z	Expected Outputs: sum = 12, cout = 0
#                 1190 MISMATCH: Inputs: ain =  7, bin =  6, cin = 0 	Actual Outputs: sum =  z, cout = z	Expected Outputs: sum = 13, cout = 0
#                 1200 MISMATCH: Inputs: ain =  7, bin =  7, cin = 0 	Actual Outputs: sum =  z, cout = z	Expected Outputs: sum = 14, cout = 0
#                 1210 MISMATCH: Inputs: ain =  7, bin =  8, cin = 0 	Actual Outputs: sum =  z, cout = z	Expected Outputs: sum = 15, cout = 0
#                 1220 MISMATCH: Inputs: ain =  7, bin =  9, cin = 0 	Actual Outputs: sum =  z, cout = z	Expected Outputs: sum =  0, cout = 1
#                 1230 MISMATCH: Inputs: ain =  7, bin = 10, cin = 0 	Actual Outputs: sum =  z, cout = z	Expected Outputs: sum =  1, cout = 1
#                 1240 MISMATCH: Inputs: ain =  7, bin = 11, cin = 0 	Actual Outputs: sum =  z, cout = z	Expected Outputs: sum =  2, cout = 1
#                 1250 MISMATCH: Inputs: ain =  7, bin = 12, cin = 0 	Actual Outputs: sum =  z, cout = z	Expected Outputs: sum =  3, cout = 1
#                 1260 MISMATCH: Inputs: ain =  7, bin = 13, cin = 0 	Actual Outputs: sum =  z, cout = z	Expected Outputs: sum =  4, cout = 1
#                 1270 MISMATCH: Inputs: ain =  7, bin = 14, cin = 0 	Actual Outputs: sum =  z, cout = z	Expected Outputs: sum =  5, cout = 1
#                 1280 MISMATCH: Inputs: ain =  7, bin = 15, cin = 0 	Actual Outputs: sum =  z, cout = z	Expected Outputs: sum =  6, cout = 1
#                 1290 MISMATCH: Inputs: ain =  8, bin =  0, cin = 0 	Actual Outputs: sum =  z, cout = z	Expected Outputs: sum =  8, cout = 0
#                 1300 MISMATCH: Inputs: ain =  8, bin =  1, cin = 0 	Actual Outputs: sum =  z, cout = z	Expected Outputs: sum =  9, cout = 0
#                 1310 MISMATCH: Inputs: ain =  8, bin =  2, cin = 0 	Actual Outputs: sum =  z, cout = z	Expected Outputs: sum = 10, cout = 0
#                 1320 MISMATCH: Inputs: ain =  8, bin =  3, cin = 0 	Actual Outputs: sum =  z, cout = z	Expected Outputs: sum = 11, cout = 0
#                 1330 MISMATCH: Inputs: ain =  8, bin =  4, cin = 0 	Actual Outputs: sum =  z, cout = z	Expected Outputs: sum = 12, cout = 0
#                 1340 MISMATCH: Inputs: ain =  8, bin =  5, cin = 0 	Actual Outputs: sum =  z, cout = z	Expected Outputs: sum = 13, cout = 0
#                 1350 MISMATCH: Inputs: ain =  8, bin =  6, cin = 0 	Actual Outputs: sum =  z, cout = z	Expected Outputs: sum = 14, cout = 0
#                 1360 MISMATCH: Inputs: ain =  8, bin =  7, cin = 0 	Actual Outputs: sum =  z, cout = z	Expected Outputs: sum = 15, cout = 0
#                 1370 MISMATCH: Inputs: ain =  8, bin =  8, cin = 0 	Actual Outputs: sum =  z, cout = z	Expected Outputs: sum =  0, cout = 1
#                 1380 MISMATCH: Inputs: ain =  8, bin =  9, cin = 0 	Actual Outputs: sum =  z, cout = z	Expected Outputs: sum =  1, cout = 1
